{
	"script_name": "baillie_PSW",
	"method_name": "baillie_psw_test",
	"category": "Primes",
	"title": "Baillie - PSW primality test",
	"description": "The Baillie-PSW test is a combination of a strong Fermat probable prime test to base 2 and a strong Lucas probable prime test. The Fermat and Lucas test each have their own list of pseudoprimes, that is, composite numbers that pass the test. There is no known overlap between these lists of strong Fermat pseudoprimes and strong Lucas pseudoprimes.",
	"arguments": ["pos_int"],
	"arg_desc": ["n - the number to test for primality"]
}
