{
	"script_name": "pollard_rho_factorization",
	"method_name": "pollard_rho_factorization",
	"category": "Factorization",
	"title": "Pollard's rho factorization method",
	"description": "Pollard's rho factorization method uses only a small amount of space, and its expected running time is proportional to the square root of the size of the smallest prime factor of the composite number being factorized.",
	"arguments": ["pos_int", "pos_int"],
	"arg_desc": ["n - the number to factorize", "k - the amount of times to try"]
}
