{
	"script_name": "tonelli_shanks",
	"method_name": "tonelli_shanks",
	"category": "Εύρεση τετραγωνικής ρίζας modulo p",
	"title": "Αλγόριθμος Tonelli-Shanks",
	"description": "Ο αλγόριθμος Tonelli–Shanks λύνει για r όπου r^2 ≡ n (modulo p) και p είναι ένας πρώτος αριθμός. Δηλαδή βρίσκει τις τετραγωνικές ρίζες του n modulo p.",
	"arguments": ["pos_int", "prime"],
	"arg_desc": ["n - ένας θετικός ακέραιος", "p - ένας πρώτος αριθμός"]
}
